<?xml version="1.0" standalone="no"?>
<!DOCTYPE svg PUBLIC "-//W3C//DTD SVG 1.1//EN" "https://www.w3.org/Graphics/SVG/1.1/DTD/svg11.dtd" >
<svg xmlns="https://www.w3.org/2000/svg">
<metadata>Generated by IcoMoon</metadata>
<defs>
<font id="icomoon" horiz-adv-x="512">
<font-face units-per-em="512" ascent="480" descent="-32" />
<missing-glyph horiz-adv-x="512" />
<glyph unicode="&#x20;" d="" horiz-adv-x="256" />
<glyph unicode="&#xe000;" d="M130.627 456.379l21.506 21.508 253.32-253.316-0.571-0.571 0.571-0.57-253.317-253.317-21.509 21.508 232.38 232.38z" />
<glyph unicode="&#xe001;" d="M384.333-8.378l-21.506-21.509-253.319 253.317 0.571 0.571-0.571 0.571 253.316 253.316 21.509-21.508-232.38-232.38z" />
<glyph unicode="&#xe002;" d="M503.864 47.001l-123.295 123.29c18.101 30.358 28.518 65.806 28.518 103.645 0 111.944-91.075 203.020-203.020 203.020-111.942 0-203.018-91.076-203.018-203.020s91.076-203.016 203.019-203.016c37.746 0 73.11 10.366 103.42 28.383 0.018-0.018 0.032-0.038 0.051-0.057l123.291-123.284c5.634-5.643 14.916-5.496 20.73 0.318l49.984 49.987c5.814 5.808 5.956 15.098 0.32 20.734zM52.706 273.936c0 84.563 68.798 153.361 153.361 153.361s153.361-68.797 153.361-153.361c0-84.561-68.797-153.358-153.361-153.358s-153.361 68.797-153.361 153.358z" />
<glyph unicode="&#xe003;" d="M468.54 77.784l-150.376 150.376 140.136 140.136c3.571 3.571 3.903 9.028 0.742 12.189l-49.172 49.173c-3.161 3.161-8.619 2.828-12.189-0.742l-140.136-140.136-140.776 140.775c-3.571 3.571-9.028 3.903-12.189 0.742l-49.172-49.172c-3.161-3.161-2.829-8.619 0.742-12.189l140.775-140.776-151.016-151.016c-3.57-3.571-3.903-9.027-0.742-12.189l49.174-49.172c3.16-3.161 8.618-2.829 12.189 0.742l151.016 151.016 150.374-150.376c3.571-3.571 9.028-3.904 12.189-0.742l49.174 49.172c3.159 3.161 2.827 8.617-0.743 12.189z" />
<glyph unicode="&#xe004;" d="M506.701 476.316l5.431-5.43-503.036-503.036-5.43 5.43z" />
<glyph unicode="&#xe005;" d="M203.879 276.027h-198.247v198.248h198.247v-198.248zM17.92 288.315h173.671v173.672h-173.671v-173.672zM508.519 276.027h-198.247v198.248h198.247v-198.248zM322.56 288.315h173.671v173.672h-173.671v-173.672zM204.135-28.519h-198.247v198.247h198.247v-198.247zM18.176-16.231h173.671v173.671h-173.671v-173.671zM508.775-28.519h-198.247v198.247h198.247v-198.247zM322.816-16.231h173.671v173.671h-173.671v-173.671z" />
<glyph unicode="&#xe006;" d="M133.332 459.727l8.241 8.233 243.948-243.968-243.953-243.952-8.236 8.235 235.728 235.728z" />
<glyph unicode="&#xe007;" d="M367.603 459.727l-8.24 8.233-243.951-243.968 243.956-243.952 8.235 8.235-235.727 235.728z" />
<glyph unicode="&#xe008;" d="M488.376 340.933l21.509-21.504-253.317-253.32-0.568 0.569-0.573-0.571-253.315 253.314 21.507 21.509 232.381-232.378 232.376 232.381z" />
<glyph unicode="&#xe009;" d="M279.533 448c0 0-100.478 0-133.97 0-60.060 0-116.585-45.503-116.585-98.211 0-53.863 40.941-97.333 102.044-97.333 4.249 0 8.378 0.085 12.421 0.376-3.965-7.593-6.801-16.144-6.801-25.021 0-14.969 8.052-27.105 18.234-37.012-7.693 0-15.121-0.224-23.226-0.224-74.391 0.001-131.65-47.379-131.65-96.51 0-48.389 62.771-78.657 137.167-78.657 84.812 0 131.653 48.122 131.653 96.514 0 38.8-11.448 62.036-46.843 87.067-12.108 8.572-35.265 29.418-35.265 41.672 0 14.36 4.098 21.434 25.714 38.323 22.156 17.312 37.836 41.651 37.836 69.958 0 33.703-15.010 66.549-43.186 77.386h42.477l29.98 21.672zM232.74 120.271c1.063-4.486 1.642-9.103 1.642-13.814 0-39.1-25.196-69.655-97.487-69.655-51.421 0-88.558 32.552-88.558 71.65 0 38.321 46.063 70.222 97.482 69.666 12-0.127 23.184-2.058 33.335-5.345 27.913-19.413 47.938-30.381 53.586-52.502zM150.409 266.112c-34.519 1.032-67.318 38.613-73.276 83.93-5.958 45.333 17.185 80.021 51.694 78.995 34.505-1.037 67.319-37.407 73.279-82.729 5.953-45.33-17.195-81.229-51.697-80.196zM416 352v96h-32v-96h-96v-32h96v-96h32v96h96v32z" />
<glyph unicode="&#xe00a;" d="M287.935-32h-95.935v256h-64v88.225l64 0.029-0.104 51.976c0 71.976 19.517 115.77 104.299 115.77h70.588v-88.242h-44.115c-33.016 0-34.603-12.328-34.603-35.342l-0.131-44.162h79.345l-9.352-88.225-69.927-0.029-0.065-256z" />
<glyph unicode="&#xe00b;" d="M512 382.791c-18.838-8.354-39.082-14.001-60.33-16.54 21.686 13 38.343 33.585 46.186 58.115-20.298-12.039-42.778-20.78-66.705-25.49-19.16 20.415-46.461 33.17-76.673 33.17-58.011 0-105.044-47.029-105.044-105.039 0-8.233 0.929-16.25 2.72-23.939-87.3 4.382-164.701 46.2-216.509 109.753-9.042-15.514-14.223-33.558-14.223-52.809 0-36.444 18.544-68.596 46.73-87.433-17.219 0.546-33.416 5.271-47.577 13.139-0.010-0.438-0.010-0.878-0.010-1.321 0-50.894 36.209-93.348 84.261-103-8.813-2.4-18.094-3.686-27.674-3.686-6.769 0-13.349 0.66-19.764 1.886 13.368-41.73 52.16-72.103 98.126-72.948-35.95-28.175-81.243-44.967-130.458-44.967-8.479 0-16.84 0.497-25.058 1.47 46.486-29.805 101.701-47.197 161.021-47.197 193.211 0 298.868 160.062 298.868 298.872 0 4.554-0.103 9.084-0.305 13.59 20.528 14.81 38.336 33.31 52.418 54.374z" />
<glyph unicode="&#xe00c;" d="M492.593 327.055l8.235-8.24-243.97-243.948-243.953 243.953 8.235 8.235 235.728-235.727z" />
<glyph unicode="&#xe00d;" d="M256 480c-141.385 0-256-114.615-256-256s114.613-256 256-256c141.385 0 256 114.615 256 256s-114.615 256-256 256zM280.822 137.941c-23.26 1.807-33.021 13.328-51.252 24.404-10.030-52.588-22.282-103.008-58.57-129.343-11.202 79.484 16.447 139.182 29.285 202.557-21.892 36.853 2.635 111.017 48.81 92.737 56.813-22.474-49.2-137.004 21.966-151.308 74.31-14.934 104.644 128.929 58.571 175.712-66.579 67.553-193.799 1.54-178.155-95.178 3.807-23.646 28.236-30.819 9.762-63.451-42.61 9.446-55.325 43.051-53.688 87.856 2.634 73.337 65.892 124.682 129.343 131.783 80.242 8.982 155.553-29.454 165.953-104.938 11.706-85.195-36.224-177.465-122.025-170.831z" />
<glyph unicode="&#xe00e;" d="M512 300.922c0-43.181-18.609-82.015-48.245-108.922h0.245l-160-160c-16-16-32-32-48-32s-32 16-48 32l-160 160h0.245c-29.636 26.907-48.245 65.741-48.245 108.922 0 81.229 65.849 147.078 147.078 147.078 43.181 0 82.015-18.609 108.922-48.245 26.907 29.636 65.741 48.245 108.922 48.245 81.228 0 147.078-65.849 147.078-147.078z" />
<glyph unicode="&#xe00f;" d="M512 300.922c0 81.229-65.85 147.078-147.078 147.078-43.181 0-82.015-18.609-108.922-48.245-26.907 29.636-65.741 48.245-108.922 48.245-81.229 0-147.078-65.849-147.078-147.078 0-43.181 18.609-82.015 48.245-108.922h-0.245l160-160c16-16 32-32 48-32s32 16 48 32l160 160h-0.245c29.636 26.907 48.245 65.741 48.245 108.922zM420.734 239.384l-161.989-162.129c-0.839-0.839-1.766-1.766-2.745-2.74-0.98 0.975-1.907 1.901-2.745 2.74l-161.989 162.128c-17.583 15.964-27.266 37.819-27.266 61.539 0 45.809 37.269 83.078 83.078 83.078 23.72 0 45.575-9.683 61.538-27.266l47.384-52.19 47.384 52.189c15.964 17.584 37.818 27.267 61.538 27.267 45.809 0 83.078-37.269 83.078-83.078 0-23.72-9.684-45.575-27.266-61.538z" />
<glyph unicode="&#xe010;" d="M290.071 258.083v221.929h-68.131v-221.929h-221.928v-68.108h221.928v-221.963h68.131v221.963h221.917v68.108z" />
<glyph unicode="&#xe011;" d="M319.885 419.477l-24.299-42.1 56.108-32.4 24.3 42.102-56.109 32.398zM279.387 349.323l-121.497-210.426 56.108-32.398 121.497 210.426-56.108 32.398zM345.408 442.154l37.461-21.643c20.841-12.023 27.76-38.282 15.863-58.892l-35.182-60.895-137.697-238.521-84.627-55.854c-20.48-13.502-35.12-4.513-33.664 19.447l6.074 101.206 172.838 299.418c11.938 20.607 38.262 27.652 58.934 15.734zM137.345 38.493l60.454 39.909-56.109 32.4-4.345-72.309z" />
<glyph unicode="&#xe012;" d="M441.201 327.542h-56.822v22.753c0 71.398-57.876 129.275-129.27 129.275s-129.27-57.877-129.27-129.275v-22.753h-56.806c-23.491 0-42.532-23.363-42.532-52.173v-254.336c0-28.82 19.041-52.178 42.532-52.178h372.168c23.48 0 42.522 23.363 42.522 52.178l-0.001 254.336c0 28.81-19.041 52.173-42.521 52.173zM180.465 350.295c0 41.16 33.485 74.65 74.65 74.65s74.65-33.49 74.65-74.65v-22.753h-149.299l-0.001 22.753zM429.102 23.47h-347.981v249.446h347.976v-249.446z" />
<glyph unicode="&#xe013;" d="M208.277 236.972c0 0 47.071 3.497 47.071 58.699 0 55.201-38.513 82.138-87.294 82.138h-160.524v-308.489h160.525c0 0 97.987-3.085 97.987 91.055-0.001-0.001 4.277 76.597-57.765 76.597zM156.495 322.982h11.56c0 0 21.817 0 21.817-32.093s-12.838-36.748-27.386-36.748h-84.229v68.841h78.238zM164.003 124.148h-85.746v82.441h89.798c0 0 32.52 0.428 32.52-42.364 0-35.588-23.678-39.7-36.572-40.077zM396.736 299.323c-118.631 0-118.519-118.521-118.519-118.521s-8.147-117.923 118.526-117.923c0 0 105.553-6.031 105.553 82.032h-54.285c0 0 1.807-33.171-49.464-33.171 0 0-54.283-3.63-54.283 53.676h159.846c-0.001 0 17.485 133.907-107.374 133.907zM444.993 206.589h-101.338c0 0 6.635 47.552 54.292 47.552 47.653 0 47.046-47.552 47.046-47.552zM330.376 359.641h127.27v-38h-127.27z" />
<glyph unicode="&#xe014;" d="M0 325.815l20.797-27.272c0 0 42.885 33.804 57.18 16.901 14.294-16.901 68.868-220.978 87.085-258.623 15.9-33.015 59.759-76.66 107.857-45.491 48.068 31.17 207.92 167.643 236.533 328.808 28.59 161.113-192.36 127.363-215.765-13.005 58.495 35.118 89.718-14.269 59.785-70.186-29.879-55.862-57.18-92.296-71.476-92.296-14.269 0-25.245 37.384-41.594 102.723-16.899 67.551-16.796 189.23-87.058 175.435-66.259-13.006-153.344-116.994-153.344-116.994z" />
<glyph unicode="&#xe600;" d="M445.98 222.898c-9.043 0-17.674-1.76-25.532-4.928-5.253 57.179-55.145 102.030-116 102.030-14.893 0-29.341-2.815-42.159-7.582-4.98-1.851-6.289-3.76-6.289-7.458v-201.357c0-3.883 3.12-7.117 7.062-7.498 0.168-0.017 181.768-0.105 182.945-0.105 36.452 0 65.993 28.408 65.993 63.447s-29.567 63.451-66.020 63.451zM200 96h16l8 112.11-8 111.89h-16l-8-111.89zM152 96h-16l-8 81.375 8 78.625h16l8-80zM72 96h16l8 64-8 64h-16l-8-64zM8 128h16l8 32-8 32h-16l-8-32z" />
<glyph unicode="&#xe601;" d="M329.923 47.749c-3.779 0-7.567 1.454-10.455 4.332-5.786 5.776-5.786 15.135 0 20.91l135.762 135.762h-436.582c-8.162 0-14.787 6.625-14.787 14.807 0 8.161 6.615 14.786 14.787 14.786h436.582l-135.751 135.782c-5.765 5.776-5.765 15.135 0 20.91 5.765 5.765 15.135 5.765 20.91 0l171.438-171.479-171.459-171.479c-2.887-2.877-6.666-4.332-10.445-4.332z" />
<glyph unicode="&#xe602;" d="M142.216 222.072h236.613v-7.663h-236.613v7.663z" />
<glyph unicode="&#xe603;" d="M50.944 343.322c0-38.221 12.775-65.843 37.939-82.048 20.608-13.287 44.544-15.283 56.986-15.283 3.021 0 5.427 0.128 7.117 0.231 0 0-3.942-25.677 15.104-51.097l-0.87 0.026c-32.999 0-140.647-6.912-140.647-95.411 0-90.035 98.867-94.592 118.681-94.592 1.561 0 2.458 0.026 2.458 0.026 0.231 0 1.638-0.051 4.045-0.051 12.723 0 45.619 1.587 76.186 16.461 39.629 19.226 59.75 52.711 59.75 99.456 0 45.184-30.618 72.064-52.992 91.725-13.645 11.981-25.446 22.323-25.446 32.384 0 10.24 8.601 17.946 19.507 27.699 17.613 15.769 34.253 38.221 34.253 80.666 0 37.325-4.839 62.361-34.662 78.233 3.123 1.587 14.106 2.739 19.559 3.507 16.154 2.202 39.782 4.711 39.782 17.894v2.534h-117.709c-1.178-0.025-119.040-4.403-119.040-112.358zM240.973 112.589c2.253-35.993-28.544-62.567-74.778-65.92-46.951-3.456-85.632 17.69-87.885 53.683-1.075 17.28 6.502 34.202 21.376 47.693 15.104 13.645 35.789 22.067 58.342 23.757 2.662 0.154 5.299 0.281 7.936 0.281 43.443 0 72.883-25.549 75.008-59.495zM210.227 367.975c11.546-40.627-5.888-83.098-33.664-90.931-3.2-0.896-6.502-1.357-9.831-1.357-25.472 0-50.688 25.753-60.032 61.235-5.222 19.942-4.813 37.351 1.177 54.118 5.888 16.461 16.461 27.623 29.773 31.36 3.2 0.921 6.528 1.357 9.856 1.357 30.72 0 50.483-12.749 62.72-55.782zM408.601 279.501v76.8h-48.64v-76.8h-76.8v-48.64h76.8v-76.8h48.64v76.8h76.8v48.64h-76.8z" />
<glyph unicode="&#xe604;" d="M220.57 147.763c-13.44-70.477-29.85-138.061-78.49-173.363-15.001 106.547 22.041 186.547 39.245 271.488-29.338 49.408 3.533 148.787 65.433 124.288 76.16-30.131-65.945-183.629 29.44-202.803 99.61-20.019 140.262 172.8 78.515 235.494-89.241 90.573-259.789 2.099-238.797-127.513 5.094-31.693 37.837-41.319 13.082-85.043-57.114 12.647-74.163 57.702-71.962 117.76 3.533 98.279 88.32 167.091 173.363 176.614 107.571 12.058 208.512-39.475 222.413-140.646 15.693-114.176-48.512-237.85-163.558-228.941-31.155 2.381-44.237 17.817-68.685 32.666z" />
<glyph unicode="&#xe605;" d="M129.946 408.32c0-27.213-20.096-49.255-53.145-49.255-31.104 0-51.2 22.041-51.2 49.255 0 27.853 20.761 49.255 52.505 49.255s51.2-21.401 51.84-49.255zM28.211 3.226v316.928h98.509v-316.928h-98.509zM185.677 219.059c0 39.526-1.305 72.576-2.611 101.094h85.555l4.557-44.083h1.945c12.954 20.761 44.723 51.2 97.869 51.2 64.793 0 113.408-43.417 113.408-136.755v-187.315h-98.509v175.642c0 40.832-14.285 68.71-49.92 68.71-27.213 0-43.392-18.791-50.534-36.941-2.611-6.477-3.251-15.539-3.251-24.627v-182.784h-98.509v215.859z" />
<glyph unicode="&#xe606;" d="M120.080 377.379l-9.082 53.661h-109.282l9.504-55.29h54.537l39.541-229.46h304.805l101.526 231.089h-391.549zM376.070 198.414h-226.864l-21.853 126.841h304.441l-55.724-126.841zM168.137 106.764c-25.191 0-45.609-20.422-45.609-45.608s20.417-45.609 45.609-45.609c25.191 0 45.609 20.423 45.609 45.61s-20.417 45.608-45.609 45.608zM352.308 106.764c-25.193 0-45.61-20.422-45.61-45.608s20.416-45.609 45.61-45.609c25.19 0 45.608 20.423 45.608 45.61s-20.418 45.608-45.608 45.608z" />
<glyph unicode="&#xf1bc;" d="M19.793 219.429q0 64.308 31.692 118.615t86 86 118.616 31.692 118.615-31.692 86-86 31.692-118.615-31.692-118.615-86-86-118.615-31.692-118.615 31.692-86 86-31.692 118.615zM92.716 295.121q0-9.538 6.308-16t15.847-6.462q3.385 0 12.308 2.462 40.923 11.385 94.462 11.385 48.923 0 95.231-10.462t78-29.231q6.462-3.692 12.308-3.692 8.923 0 15.538 6.308t6.615 15.846q0 14.462-12.308 21.538-38.769 22.462-90.154 34t-105.538 11.538q-62.769 0-112-14.462-7.077-2.154-11.846-7.846t-4.769-14.923zM108.716 218.506q0-7.692 5.385-13.077t13.077-5.385q2.154 0 11.384 2.462 37.538 10.154 77.231 10.154 85.847 0 150.154-38.154 7.385-4 11.692-4 7.692 0 13.077 5.385t5.385 13.077q0 12.308-10.769 18.769-72.923 43.385-168.615 43.385-47.077 0-93.231-12.923-14.769-4-14.769-19.692zM118.561 147.429q0-6.154 4.153-10.615t10.923-4.462q1.538 0 11.385 2.462 40.615 8.308 74.769 8.308 69.538 0 122.154-31.692 5.846-3.385 10.154-3.385 5.846 0 10.154 4.154t4.308 10.615q0 9.846-9.231 15.692-59.385 35.385-137.538 35.385-40.923 0-88.308-10.462-12.923-2.769-12.923-16z" />
</font></defs></svg>